{
    "prepare_queue": {
        "installed": [],
        "uninstalled": []
    },
    "config_munge": {
        "files": {}
    },
    "installed_plugins": {
        "phonegap-plugin-barcodescanner": {
            "PACKAGE_NAME": "io.onsen.sampleapp"
        },
        "cordova-plugin-whitelist": {
            "PACKAGE_NAME": "io.ccc.invisys"
        },
        "cordova-plugin-inappbrowser": {
            "PACKAGE_NAME": "io.ccc.invisys"
        },
        "cordova-plugin-googleplus": {
            "PACKAGE_NAME": "io.ccc.invisys"
        },
        "cordova-plugin-x-toast": {
            "PACKAGE_NAME": "io.ccc.invisys"
        },
        "org.apache.cordova.plugin.cache": {
            "PACKAGE_NAME": "io.ccc.invisys"
        }
    },
    "dependent_plugins": {
        "cordova-plugin-compat": {
            "PACKAGE_NAME": "io.onsen.sampleapp"
        }
    }
}